verif/sim/sdp_relu_int16/test.log
Command: /home/bcwang/nvdla/nvdla_bak/hw_20171120/verif/sim/sdp_relu_int16/./simv -l test.log +continue_on_fail +dump_fsdb +fsdb+dump_log=off +fsdbfile+/home/bcwang/nvdla/nvdla_bak/hw_20171120/verif/sim/sdp_relu_int16/debussy.fsdb +input_file=/home/bcwang/nvdla/nvdla_bak/hw_20171120/verif/sim/sdp_relu_int16/input.txn +input_dir=/home/bcwang/nvdla/nvdla_bak/hw_20171120/verif/sim/sdp_relu_int16
Chronologic VCS simulator copyright 1991-2017
Contains Synopsys proprietary information.
Compiler version M-2017.03-SP2_Full64; Runtime version M-2017.03-SP2_Full64;  Nov 24 12:41 2017
VCD+ Writer M-2017.03-SP2_Full64 Copyright (c) 1991-2017 by Synopsys Inc.
(1) NVDLA_IP_INFO : Turning on fsdb dump to file debussy.fsdb
*Verdi* Loading libsscore_vcs201703.so
*Verdi* : Disable novas_dump.log.
FSDB Dumper for VCS, Release Verdi_M-2017.03-SP2, Linux x86_64/64bit, 08/20/2017
(C) 1996 - 2017 by Synopsys, Inc.
*Verdi* FSDB: The switch FSDB file size might not match the input size (1000MB) because of performance concerns.
*Verdi* FSDB: To have the FSDB file size match the input size (1000MB), set the FSDB_ENV_PRECISE_AUTOSWITCH environment, though the dumping performance might decrease.
*Verdi* : Enable automatic switching of the FSDB file.
*Verdi* : (Filename='debussy', Limit Size=1000MB, File Amount=20).
*Verdi* : Create FSDB file 'debussy_000.fsdb'
*Verdi* : Create the file 'debussy.log' to log the time range of each FSDB file.
*Verdi* : Create virtual FSDB file 'debussy.vf' to log each FSDB file.
*Verdi* : Begin traversing the scope (top), layer (0).
*Verdi* WARNING: Var 'memory' will be ignored because its total element is larger than or equal to 2097152.
*Verdi* : End of traversing.
(2) NVDLA_IP_INFO : fsdb dumping enabled. debussy.fsdb
10570.00ns MSEQ: Backdoor mem_load of file                           0.raw2 at address 0x80200000 for length 0x00001000.
10650.00ns MSEQ: write_cmd address 0xffff2803 with data 0x00000007 (command 4294967293)
11450.00ns MSEQ: Write (command 4294967293) completed (addr: 0xffff2803, data: 0x00000007.
11530.00ns MSEQ: read_cmd address 0xffff2803 with data 0x00000007 and mask 0x00001fff (command 4294967294)
12330.00ns MSEQ: Read (command 4294967294) matched (addr: 0xffff2803, received data: 0x00000007, expected data: 0x00000007.
12410.00ns MSEQ: write_cmd address 0xffff2804 with data 0x00000007 (command 4294967295)
13210.00ns MSEQ: Write (command 4294967295) completed (addr: 0xffff2804, data: 0x00000007.
13290.00ns MSEQ: read_cmd address 0xffff2804 with data 0x00000007 and mask 0x00001fff (command 0)
14090.00ns MSEQ: Read (command 0) matched (addr: 0xffff2804, received data: 0x00000007, expected data: 0x00000007.
14170.00ns MSEQ: write_cmd address 0xffff2805 with data 0x0000001f (command 1)
14970.00ns MSEQ: Write (command 1) completed (addr: 0xffff2805, data: 0x0000001f.
15050.00ns MSEQ: read_cmd address 0xffff2805 with data 0x0000001f and mask 0x00001fff (command 2)
15850.00ns MSEQ: Read (command 2) matched (addr: 0xffff2805, received data: 0x0000001f, expected data: 0x0000001f.
15930.00ns MSEQ: write_cmd address 0xffff2806 with data 0x80200000 (command 3)
16730.00ns MSEQ: Write (command 3) completed (addr: 0xffff2806, data: 0x80200000.
16810.00ns MSEQ: read_cmd address 0xffff2806 with data 0x80200000 and mask 0xffffffe0 (command 4)
17610.00ns MSEQ: Read (command 4) matched (addr: 0xffff2806, received data: 0x80200000, expected data: 0x80200000.
17690.00ns MSEQ: write_cmd address 0xffff2807 with data 0x00000000 (command 5)
18490.00ns MSEQ: Write (command 5) completed (addr: 0xffff2807, data: 0x00000000.
18570.00ns MSEQ: read_cmd address 0xffff2807 with data 0x00000000 and mask 0xffffffff (command 6)
19370.00ns MSEQ: Read (command 6) matched (addr: 0xffff2807, received data: 0x00000000, expected data: 0x00000000.
19450.00ns MSEQ: write_cmd address 0xffff2808 with data 0x00000100 (command 7)
20250.00ns MSEQ: Write (command 7) completed (addr: 0xffff2808, data: 0x00000100.
20330.00ns MSEQ: read_cmd address 0xffff2808 with data 0x00000100 and mask 0xffffffe0 (command 8)
21130.00ns MSEQ: Read (command 8) matched (addr: 0xffff2808, received data: 0x00000100, expected data: 0x00000100.
21210.00ns MSEQ: write_cmd address 0xffff2809 with data 0x00000800 (command 9)
22010.00ns MSEQ: Write (command 9) completed (addr: 0xffff2809, data: 0x00000800.
22090.00ns MSEQ: read_cmd address 0xffff2809 with data 0x00000800 and mask 0xffffffe0 (command 10)
22890.00ns MSEQ: Read (command 10) matched (addr: 0xffff2809, received data: 0x00000800, expected data: 0x00000800.
22970.00ns MSEQ: write_cmd address 0xffff280a with data 0x0000001b (command 11)
23770.00ns MSEQ: Write (command 11) completed (addr: 0xffff280a, data: 0x0000001b.
23850.00ns MSEQ: read_cmd address 0xffff280a with data 0x0000001b and mask 0x0000003f (command 12)
24650.00ns MSEQ: Read (command 12) matched (addr: 0xffff280a, received data: 0x0000001b, expected data: 0x0000001b.
24730.00ns MSEQ: write_cmd address 0xffff280b with data 0x80300000 (command 13)
25530.00ns MSEQ: Write (command 13) completed (addr: 0xffff280b, data: 0x80300000.
25610.00ns MSEQ: read_cmd address 0xffff280b with data 0x80300000 and mask 0xffffffe0 (command 14)
26410.00ns MSEQ: Read (command 14) matched (addr: 0xffff280b, received data: 0x80300000, expected data: 0x80300000.
26490.00ns MSEQ: write_cmd address 0xffff280c with data 0x00000000 (command 15)
27290.00ns MSEQ: Write (command 15) completed (addr: 0xffff280c, data: 0x00000000.
27370.00ns MSEQ: read_cmd address 0xffff280c with data 0x00000000 and mask 0xffffffff (command 16)
28170.00ns MSEQ: Read (command 16) matched (addr: 0xffff280c, received data: 0x00000000, expected data: 0x00000000.
28250.00ns MSEQ: write_cmd address 0xffff281c with data 0x00000054 (command 17)
29050.00ns MSEQ: Write (command 17) completed (addr: 0xffff281c, data: 0x00000054.
29130.00ns MSEQ: read_cmd address 0xffff281c with data 0x00000054 and mask 0x00001fff (command 18)
29930.00ns MSEQ: Read (command 18) matched (addr: 0xffff281c, received data: 0x00000054, expected data: 0x00000054.
30010.00ns MSEQ: write_cmd address 0xffff281d with data 0x00000001 (command 19)
30810.00ns MSEQ: Write (command 19) completed (addr: 0xffff281d, data: 0x00000001.
30890.00ns MSEQ: read_cmd address 0xffff281d with data 0x00000001 and mask 0x00000001 (command 20)
31690.00ns MSEQ: Read (command 20) matched (addr: 0xffff281d, received data: 0x00000001, expected data: 0x00000001.
31770.00ns MSEQ: write_cmd address 0xffff2810 with data 0x0000001b (command 21)
32570.00ns MSEQ: Write (command 21) completed (addr: 0xffff2810, data: 0x0000001b.
32650.00ns MSEQ: read_cmd address 0xffff2810 with data 0x0000001b and mask 0x0000003f (command 22)
33450.00ns MSEQ: Read (command 22) matched (addr: 0xffff2810, received data: 0x0000001b, expected data: 0x0000001b.
33530.00ns MSEQ: write_cmd address 0xffff2816 with data 0x0000001b (command 23)
34330.00ns MSEQ: Write (command 23) completed (addr: 0xffff2816, data: 0x0000001b.
34410.00ns MSEQ: read_cmd address 0xffff2816 with data 0x0000001b and mask 0x0000003f (command 24)
35210.00ns MSEQ: Read (command 24) matched (addr: 0xffff2816, received data: 0x0000001b, expected data: 0x0000001b.
35290.00ns MSEQ: write_cmd address 0xffff2c01 with data 0x00000000 (command 25)
36090.00ns MSEQ: Write (command 25) completed (addr: 0xffff2c01, data: 0x00000000.
36170.00ns MSEQ: read_cmd address 0xffff2c01 with data 0x00000000 and mask 0x00010001 (command 26)
36970.00ns MSEQ: Read (command 26) matched (addr: 0xffff2c01, received data: 0x00000000, expected data: 0x00000000.
37050.00ns MSEQ: write_cmd address 0xffff2c02 with data 0x00000000 (command 27)
37850.00ns MSEQ: Write (command 27) completed (addr: 0xffff2c02, data: 0x00000000.
37930.00ns MSEQ: read_cmd address 0xffff2c02 with data 0x00000000 and mask 0x000303ff (command 28)
38730.00ns MSEQ: Read (command 28) matched (addr: 0xffff2c02, received data: 0x00000000, expected data: 0x00000000.
38810.00ns MSEQ: write_cmd address 0xffff2c03 with data 0x00000000 (command 29)
39610.00ns MSEQ: Write (command 29) completed (addr: 0xffff2c03, data: 0x00000000.
39690.00ns MSEQ: read_cmd address 0xffff2c03 with data 0x00000000 and mask 0x0000ffff (command 30)
40490.00ns MSEQ: Read (command 30) matched (addr: 0xffff2c03, received data: 0x00000000, expected data: 0x00000000.
40570.00ns MSEQ: write_cmd address 0xffff2c04 with data 0x00000000 (command 31)
41370.00ns MSEQ: Write (command 31) completed (addr: 0xffff2c04, data: 0x00000000.
41450.00ns MSEQ: read_cmd address 0xffff2c04 with data 0x00000000 and mask 0x00000071 (command 32)
42250.00ns MSEQ: Read (command 32) matched (addr: 0xffff2c04, received data: 0x00000000, expected data: 0x00000000.
42330.00ns MSEQ: write_cmd address 0xffff2c0f with data 0x00000007 (command 33)
43130.00ns MSEQ: Write (command 33) completed (addr: 0xffff2c0f, data: 0x00000007.
43210.00ns MSEQ: read_cmd address 0xffff2c0f with data 0x00000007 and mask 0x00001fff (command 34)
44010.00ns MSEQ: Read (command 34) matched (addr: 0xffff2c0f, received data: 0x00000007, expected data: 0x00000007.
44090.00ns MSEQ: write_cmd address 0xffff2c10 with data 0x00000007 (command 35)
44890.00ns MSEQ: Write (command 35) completed (addr: 0xffff2c10, data: 0x00000007.
44970.00ns MSEQ: read_cmd address 0xffff2c10 with data 0x00000007 and mask 0x00001fff (command 36)
45770.00ns MSEQ: Read (command 36) matched (addr: 0xffff2c10, received data: 0x00000007, expected data: 0x00000007.
45850.00ns MSEQ: write_cmd address 0xffff2c11 with data 0x0000001f (command 37)
46650.00ns MSEQ: Write (command 37) completed (addr: 0xffff2c11, data: 0x0000001f.
46730.00ns MSEQ: read_cmd address 0xffff2c11 with data 0x0000001f and mask 0x00001fff (command 38)
47530.00ns MSEQ: Read (command 38) matched (addr: 0xffff2c11, received data: 0x0000001f, expected data: 0x0000001f.
47610.00ns MSEQ: write_cmd address 0xffff2c12 with data 0x80800000 (command 39)
48410.00ns MSEQ: Write (command 39) completed (addr: 0xffff2c12, data: 0x80800000.
48490.00ns MSEQ: read_cmd address 0xffff2c12 with data 0x80800000 and mask 0xffffffe0 (command 40)
49290.00ns MSEQ: Read (command 40) matched (addr: 0xffff2c12, received data: 0x80800000, expected data: 0x80800000.
49370.00ns MSEQ: write_cmd address 0xffff2c13 with data 0x00000000 (command 41)
50170.00ns MSEQ: Write (command 41) completed (addr: 0xffff2c13, data: 0x00000000.
50250.00ns MSEQ: read_cmd address 0xffff2c13 with data 0x00000000 and mask 0xffffffff (command 42)
51050.00ns MSEQ: Read (command 42) matched (addr: 0xffff2c13, received data: 0x00000000, expected data: 0x00000000.
51130.00ns MSEQ: write_cmd address 0xffff2c14 with data 0x00000100 (command 43)
51930.00ns MSEQ: Write (command 43) completed (addr: 0xffff2c14, data: 0x00000100.
52010.00ns MSEQ: read_cmd address 0xffff2c14 with data 0x00000100 and mask 0xffffffe0 (command 44)
52810.00ns MSEQ: Read (command 44) matched (addr: 0xffff2c14, received data: 0x00000100, expected data: 0x00000100.
52890.00ns MSEQ: write_cmd address 0xffff2c15 with data 0x00000800 (command 45)
53690.00ns MSEQ: Write (command 45) completed (addr: 0xffff2c15, data: 0x00000800.
53770.00ns MSEQ: read_cmd address 0xffff2c15 with data 0x00000800 and mask 0xffffffe0 (command 46)
54570.00ns MSEQ: Read (command 46) matched (addr: 0xffff2c15, received data: 0x00000800, expected data: 0x00000800.
54650.00ns MSEQ: write_cmd address 0xffff2c16 with data 0x00000018 (command 47)
55450.00ns MSEQ: Write (command 47) completed (addr: 0xffff2c16, data: 0x00000018.
55530.00ns MSEQ: read_cmd address 0xffff2c16 with data 0x00000018 and mask 0x0000007f (command 48)
56330.00ns MSEQ: Read (command 48) matched (addr: 0xffff2c16, received data: 0x00000018, expected data: 0x00000018.
56410.00ns MSEQ: write_cmd address 0xffff2c17 with data 0x00000002 (command 49)
57210.00ns MSEQ: Write (command 49) completed (addr: 0xffff2c17, data: 0x00000002.
57290.00ns MSEQ: read_cmd address 0xffff2c17 with data 0x00000000 and mask 0x00003f01 (command 50)
58090.00ns MSEQ: Read (command 50) matched (addr: 0xffff2c17, received data: 0x00000000, expected data: 0x00000000.
58170.00ns MSEQ: write_cmd address 0xffff2c18 with data 0x00000000 (command 51)
58970.00ns MSEQ: Write (command 51) completed (addr: 0xffff2c18, data: 0x00000000.
59050.00ns MSEQ: read_cmd address 0xffff2c18 with data 0x00000000 and mask 0x0000ffff (command 52)
59850.00ns MSEQ: Read (command 52) matched (addr: 0xffff2c18, received data: 0x00000000, expected data: 0x00000000.
59930.00ns MSEQ: write_cmd address 0xffff2c19 with data 0x00000000 (command 53)
60730.00ns MSEQ: Write (command 53) completed (addr: 0xffff2c19, data: 0x00000000.
60810.00ns MSEQ: read_cmd address 0xffff2c19 with data 0x00000000 and mask 0x0000ff01 (command 54)
61610.00ns MSEQ: Read (command 54) matched (addr: 0xffff2c19, received data: 0x00000000, expected data: 0x00000000.
61690.00ns MSEQ: write_cmd address 0xffff2c1a with data 0x00000001 (command 55)
62490.00ns MSEQ: Write (command 55) completed (addr: 0xffff2c1a, data: 0x00000001.
62570.00ns MSEQ: read_cmd address 0xffff2c1a with data 0x00000001 and mask 0x0000ffff (command 56)
63370.00ns MSEQ: Read (command 56) matched (addr: 0xffff2c1a, received data: 0x00000001, expected data: 0x00000001.
63450.00ns MSEQ: write_cmd address 0xffff2c2c with data 0x00000000 (command 57)
64250.00ns MSEQ: Write (command 57) completed (addr: 0xffff2c2c, data: 0x00000000.
64330.00ns MSEQ: read_cmd address 0xffff2c2c with data 0x00000000 and mask 0x00001f0f (command 58)
65130.00ns MSEQ: Read (command 58) matched (addr: 0xffff2c2c, received data: 0x00000000, expected data: 0x00000000.
65210.00ns MSEQ: write_cmd address 0xffff2c2d with data 0x00000001 (command 59)
66010.00ns MSEQ: Write (command 59) completed (addr: 0xffff2c2d, data: 0x00000001.
66090.00ns MSEQ: read_cmd address 0xffff2c2d with data 0x00000001 and mask 0x00000001 (command 60)
66890.00ns MSEQ: Read (command 60) matched (addr: 0xffff2c2d, received data: 0x00000001, expected data: 0x00000001.
66970.00ns MSEQ: write_cmd address 0xffff2c2e with data 0x00000000 (command 61)
67770.00ns MSEQ: Write (command 61) completed (addr: 0xffff2c2e, data: 0x00000000.
67850.00ns MSEQ: read_cmd address 0xffff2c2e with data 0x00000000 and mask 0xffffffe0 (command 62)
68650.00ns MSEQ: Read (command 62) matched (addr: 0xffff2c2e, received data: 0x00000000, expected data: 0x00000000.
68730.00ns MSEQ: write_cmd address 0xffff2c2f with data 0x00000005 (command 63)
69530.00ns MSEQ: Write (command 63) completed (addr: 0xffff2c2f, data: 0x00000005.
69610.00ns MSEQ: read_cmd address 0xffff2c2f with data 0x00000005 and mask 0x0000000f (command 64)
70410.00ns MSEQ: Read (command 64) matched (addr: 0xffff2c2f, received data: 0x00000005, expected data: 0x00000005.
70490.00ns MSEQ: write_cmd address 0xffff2c30 with data 0x00000000 (command 65)
71290.00ns MSEQ: Write (command 65) completed (addr: 0xffff2c30, data: 0x00000000.
71370.00ns MSEQ: read_cmd address 0xffff2c30 with data 0x00000000 and mask 0xffffffff (command 66)
72170.00ns MSEQ: Read (command 66) matched (addr: 0xffff2c30, received data: 0x00000000, expected data: 0x00000000.
72250.00ns MSEQ: write_cmd address 0xffff2c31 with data 0x00000001 (command 67)
73050.00ns MSEQ: Write (command 67) completed (addr: 0xffff2c31, data: 0x00000001.
73130.00ns MSEQ: read_cmd address 0xffff2c31 with data 0x00000001 and mask 0x0000ffff (command 68)
73930.00ns MSEQ: Read (command 68) matched (addr: 0xffff2c31, received data: 0x00000001, expected data: 0x00000001.
74010.00ns MSEQ: write_cmd address 0xffff2c32 with data 0x00000000 (command 69)
74810.00ns MSEQ: Write (command 69) completed (addr: 0xffff2c32, data: 0x00000000.
74890.00ns MSEQ: read_cmd address 0xffff2c32 with data 0x00000000 and mask 0x0000003f (command 70)
75690.00ns MSEQ: Read (command 70) matched (addr: 0xffff2c32, received data: 0x00000000, expected data: 0x00000000.
75770.00ns MSEQ: write_cmd address 0xffff2c1b with data 0x0000005b (command 71)
76570.00ns MSEQ: Write (command 71) completed (addr: 0xffff2c1b, data: 0x0000005b.
76650.00ns MSEQ: read_cmd address 0xffff2c1b with data 0x0000005b and mask 0x0000007f (command 72)
77450.00ns MSEQ: Read (command 72) matched (addr: 0xffff2c1b, received data: 0x0000005b, expected data: 0x0000005b.
77530.00ns MSEQ: write_cmd address 0xffff2c20 with data 0x0000005b (command 73)
78330.00ns MSEQ: Write (command 73) completed (addr: 0xffff2c20, data: 0x0000005b.
78410.00ns MSEQ: read_cmd address 0xffff2c20 with data 0x0000005b and mask 0x0000007f (command 74)
79210.00ns MSEQ: Read (command 74) matched (addr: 0xffff2c20, received data: 0x0000005b, expected data: 0x0000005b.
79290.00ns MSEQ: write_cmd address 0xffff2802 with data 0x00000001 (command 75)
80090.00ns MSEQ: Write (command 75) completed (addr: 0xffff2802, data: 0x00000001.
80170.00ns MSEQ: read_cmd address 0xffff2802 with data 0x00000001 and mask 0x00000001 (command 76)
AXI_MEM_XACTION: ReadReq: CHANNEL=0 TIME=80230.00ns ARID=0x01, ARLEN=0x0, ARSIZE=0x6 ARADDR=0x0080200000 ARBURST=0x1 ARLOCK=0x0 ARCACHE=0x0 ARPORT=0x0
AXI_MEM_XACTION: ReadReq: CHANNEL=0 TIME=80310.00ns ARID=0x01, ARLEN=0x0, ARSIZE=0x6 ARADDR=0x0080200040 ARBURST=0x1 ARLOCK=0x0 ARCACHE=0x0 ARPORT=0x0
AXI_MEM_XACTION: ReadReq: CHANNEL=0 TIME=80390.00ns ARID=0x01, ARLEN=0x0, ARSIZE=0x6 ARADDR=0x0080200080 ARBURST=0x1 ARLOCK=0x0 ARCACHE=0x0 ARPORT=0x0
80390.00ns SMEM: Received slave 0 read addr 0x0080200000 len  0 size 6, temp_mem_addr 0x0020080000
AXI_MEM_XACTION: ReadReq: CHANNEL=0 TIME=80470.00ns ARID=0x01, ARLEN=0x0, ARSIZE=0x6 ARADDR=0x00802000c0 ARBURST=0x1 ARLOCK=0x0 ARCACHE=0x0 ARPORT=0x0
80470.00ns SMEM: Received slave 0 read addr 0x0080200040 len  0 size 6, temp_mem_addr 0x0020080010
AXI_MEM_XACTION: ReadReq: CHANNEL=0 TIME=80550.00ns ARID=0x01, ARLEN=0x0, ARSIZE=0x6 ARADDR=0x0080200100 ARBURST=0x1 ARLOCK=0x0 ARCACHE=0x0 ARPORT=0x0
80550.00ns SMEM: Received slave 0 read addr 0x0080200080 len  0 size 6, temp_mem_addr 0x0020080020
AXI_MEM_XACTION: ReadReq: CHANNEL=0 TIME=80630.00ns ARID=0x01, ARLEN=0x0, ARSIZE=0x6 ARADDR=0x0080200140 ARBURST=0x1 ARLOCK=0x0 ARCACHE=0x0 ARPORT=0x0
80630.00ns SMEM: Received slave 0 read addr 0x00802000c0 len  0 size 6, temp_mem_addr 0x0020080030
AXI_MEM_XACTION: ReadReq: CHANNEL=0 TIME=80710.00ns ARID=0x01, ARLEN=0x0, ARSIZE=0x6 ARADDR=0x0080200180 ARBURST=0x1 ARLOCK=0x0 ARCACHE=0x0 ARPORT=0x0
80710.00ns SMEM: Received slave 0 read addr 0x0080200100 len  0 size 6, temp_mem_addr 0x0020080040
AXI_MEM_XACTION: ReadReq: CHANNEL=0 TIME=80790.00ns ARID=0x01, ARLEN=0x0, ARSIZE=0x6 ARADDR=0x00802001c0 ARBURST=0x1 ARLOCK=0x0 ARCACHE=0x0 ARPORT=0x0
80790.00ns SMEM: Received slave 0 read addr 0x0080200140 len  0 size 6, temp_mem_addr 0x0020080050
AXI_MEM_XACTION: ReadReq: CHANNEL=0 TIME=80870.00ns ARID=0x01, ARLEN=0x0, ARSIZE=0x6 ARADDR=0x0080200200 ARBURST=0x1 ARLOCK=0x0 ARCACHE=0x0 ARPORT=0x0
80870.00ns SMEM: Received slave 0 read addr 0x0080200180 len  0 size 6, temp_mem_addr 0x0020080060
AXI_MEM_XACTION: ReadReq: CHANNEL=0 TIME=80950.00ns ARID=0x01, ARLEN=0x0, ARSIZE=0x6 ARADDR=0x0080200240 ARBURST=0x1 ARLOCK=0x0 ARCACHE=0x0 ARPORT=0x0
80950.00ns SMEM: Received slave 0 read addr 0x00802001c0 len  0 size 6, temp_mem_addr 0x0020080070
80970.00ns MSEQ: Read (command 76) matched (addr: 0xffff2802, received data: 0x00000001, expected data: 0x00000001.
AXI_MEM_XACTION: ReadReq: CHANNEL=0 TIME=81030.00ns ARID=0x01, ARLEN=0x0, ARSIZE=0x6 ARADDR=0x0080200280 ARBURST=0x1 ARLOCK=0x0 ARCACHE=0x0 ARPORT=0x0
81030.00ns SMEM: Received slave 0 read addr 0x0080200200 len  0 size 6, temp_mem_addr 0x0020080080
81050.00ns MSEQ: write_cmd address 0xffff2c0e with data 0x00000001 (command 77)
AXI_MEM_XACTION: ReadReq: CHANNEL=0 TIME=81110.00ns ARID=0x01, ARLEN=0x0, ARSIZE=0x6 ARADDR=0x00802002c0 ARBURST=0x1 ARLOCK=0x0 ARCACHE=0x0 ARPORT=0x0
81110.00ns SMEM: Received slave 0 read addr 0x0080200240 len  0 size 6, temp_mem_addr 0x0020080090
AXI_MEM_XACTION: ReadReq: CHANNEL=0 TIME=81190.00ns ARID=0x01, ARLEN=0x0, ARSIZE=0x6 ARADDR=0x0080200300 ARBURST=0x1 ARLOCK=0x0 ARCACHE=0x0 ARPORT=0x0
81190.00ns SMEM: Received slave 0 read addr 0x0080200280 len  0 size 6, temp_mem_addr 0x00200800a0
AXI_MEM_XACTION: ReadReq: CHANNEL=0 TIME=81270.00ns ARID=0x01, ARLEN=0x0, ARSIZE=0x6 ARADDR=0x0080200340 ARBURST=0x1 ARLOCK=0x0 ARCACHE=0x0 ARPORT=0x0
81270.00ns SMEM: Received slave 0 read addr 0x00802002c0 len  0 size 6, temp_mem_addr 0x00200800b0
AXI_MEM_XACTION: ReadReq: CHANNEL=0 TIME=81350.00ns ARID=0x01, ARLEN=0x0, ARSIZE=0x6 ARADDR=0x0080200380 ARBURST=0x1 ARLOCK=0x0 ARCACHE=0x0 ARPORT=0x0
81350.00ns SMEM: Received slave 0 read addr 0x0080200300 len  0 size 6, temp_mem_addr 0x00200800c0
AXI_MEM_XACTION: ReadReq: CHANNEL=0 TIME=81430.00ns ARID=0x01, ARLEN=0x0, ARSIZE=0x6 ARADDR=0x00802003c0 ARBURST=0x1 ARLOCK=0x0 ARCACHE=0x0 ARPORT=0x0
81430.00ns SMEM: Received slave 0 read addr 0x0080200340 len  0 size 6, temp_mem_addr 0x00200800d0
AXI_MEM_XACTION: ReadReq: CHANNEL=0 TIME=81510.00ns ARID=0x01, ARLEN=0x0, ARSIZE=0x6 ARADDR=0x0080200400 ARBURST=0x1 ARLOCK=0x0 ARCACHE=0x0 ARPORT=0x0
81510.00ns SMEM: Received slave 0 read addr 0x0080200380 len  0 size 6, temp_mem_addr 0x00200800e0
AXI_MEM_XACTION: ReadReq: CHANNEL=0 TIME=81590.00ns ARID=0x01, ARLEN=0x0, ARSIZE=0x6 ARADDR=0x0080200440 ARBURST=0x1 ARLOCK=0x0 ARCACHE=0x0 ARPORT=0x0
81590.00ns SMEM: Received slave 0 read addr 0x00802003c0 len  0 size 6, temp_mem_addr 0x00200800f0
AXI_MEM_XACTION: ReadReq: CHANNEL=0 TIME=81670.00ns ARID=0x01, ARLEN=0x0, ARSIZE=0x6 ARADDR=0x0080200480 ARBURST=0x1 ARLOCK=0x0 ARCACHE=0x0 ARPORT=0x0
81670.00ns SMEM: Received slave 0 read addr 0x0080200400 len  0 size 6, temp_mem_addr 0x0020080100
AXI_MEM_XACTION: ReadReq: CHANNEL=0 TIME=81750.00ns ARID=0x01, ARLEN=0x0, ARSIZE=0x6 ARADDR=0x00802004c0 ARBURST=0x1 ARLOCK=0x0 ARCACHE=0x0 ARPORT=0x0
81750.00ns SMEM: Received slave 0 read addr 0x0080200440 len  0 size 6, temp_mem_addr 0x0020080110
AXI_MEM_XACTION: ReadReq: CHANNEL=0 TIME=81830.00ns ARID=0x01, ARLEN=0x0, ARSIZE=0x6 ARADDR=0x0080200500 ARBURST=0x1 ARLOCK=0x0 ARCACHE=0x0 ARPORT=0x0
81830.00ns SMEM: Received slave 0 read addr 0x0080200480 len  0 size 6, temp_mem_addr 0x0020080120
81850.00ns MSEQ: Write (command 77) completed (addr: 0xffff2c0e, data: 0x00000001.
AXI_MEM_XACTION: ReadReq: CHANNEL=0 TIME=81910.00ns ARID=0x01, ARLEN=0x0, ARSIZE=0x6 ARADDR=0x0080200540 ARBURST=0x1 ARLOCK=0x0 ARCACHE=0x0 ARPORT=0x0
81910.00ns SMEM: Received slave 0 read addr 0x00802004c0 len  0 size 6, temp_mem_addr 0x0020080130
81930.00ns MSEQ: read_cmd address 0xffff2c0e with data 0x00000001 and mask 0x00000001 (command 78)
AXI_MEM_XACTION: ReadReq: CHANNEL=0 TIME=81990.00ns ARID=0x01, ARLEN=0x0, ARSIZE=0x6 ARADDR=0x0080200580 ARBURST=0x1 ARLOCK=0x0 ARCACHE=0x0 ARPORT=0x0
81990.00ns SMEM: Received slave 0 read addr 0x0080200500 len  0 size 6, temp_mem_addr 0x0020080140
AXI_MEM_XACTION: ReadReq: CHANNEL=0 TIME=82070.00ns ARID=0x01, ARLEN=0x0, ARSIZE=0x6 ARADDR=0x00802005c0 ARBURST=0x1 ARLOCK=0x0 ARCACHE=0x0 ARPORT=0x0
82070.00ns SMEM: Received slave 0 read addr 0x0080200540 len  0 size 6, temp_mem_addr 0x0020080150
AXI_MEM_XACTION: ReadReq: CHANNEL=0 TIME=82150.00ns ARID=0x01, ARLEN=0x0, ARSIZE=0x6 ARADDR=0x0080200600 ARBURST=0x1 ARLOCK=0x0 ARCACHE=0x0 ARPORT=0x0
82150.00ns SMEM: Received slave 0 read addr 0x0080200580 len  0 size 6, temp_mem_addr 0x0020080160
AXI_MEM_XACTION: ReadReq: CHANNEL=0 TIME=82230.00ns ARID=0x01, ARLEN=0x0, ARSIZE=0x6 ARADDR=0x0080200640 ARBURST=0x1 ARLOCK=0x0 ARCACHE=0x0 ARPORT=0x0
82230.00ns SMEM: Received slave 0 read addr 0x00802005c0 len  0 size 6, temp_mem_addr 0x0020080170
AXI_MEM_XACTION: ReadReq: CHANNEL=0 TIME=82310.00ns ARID=0x01, ARLEN=0x0, ARSIZE=0x6 ARADDR=0x0080200680 ARBURST=0x1 ARLOCK=0x0 ARCACHE=0x0 ARPORT=0x0
82310.00ns SMEM: Received slave 0 read addr 0x0080200600 len  0 size 6, temp_mem_addr 0x0020080180
AXI_MEM_XACTION: ReadReq: CHANNEL=0 TIME=82390.00ns ARID=0x01, ARLEN=0x0, ARSIZE=0x6 ARADDR=0x00802006c0 ARBURST=0x1 ARLOCK=0x0 ARCACHE=0x0 ARPORT=0x0
82390.00ns SMEM: Received slave 0 read addr 0x0080200640 len  0 size 6, temp_mem_addr 0x0020080190
AXI_MEM_XACTION: ReadReq: CHANNEL=0 TIME=82470.00ns ARID=0x01, ARLEN=0x0, ARSIZE=0x6 ARADDR=0x0080200700 ARBURST=0x1 ARLOCK=0x0 ARCACHE=0x0 ARPORT=0x0
82470.00ns SMEM: Received slave 0 read addr 0x0080200680 len  0 size 6, temp_mem_addr 0x00200801a0
AXI_MEM_XACTION: ReadReq: CHANNEL=0 TIME=82550.00ns ARID=0x01, ARLEN=0x0, ARSIZE=0x6 ARADDR=0x0080200740 ARBURST=0x1 ARLOCK=0x0 ARCACHE=0x0 ARPORT=0x0
82550.00ns SMEM: Received slave 0 read addr 0x00802006c0 len  0 size 6, temp_mem_addr 0x00200801b0
AXI_MEM_XACTION: ReadReq: CHANNEL=0 TIME=82630.00ns ARID=0x01, ARLEN=0x0, ARSIZE=0x6 ARADDR=0x0080200780 ARBURST=0x1 ARLOCK=0x0 ARCACHE=0x0 ARPORT=0x0
82630.00ns SMEM: Received slave 0 read addr 0x0080200700 len  0 size 6, temp_mem_addr 0x00200801c0
AXI_MEM_XACTION: ReadReq: CHANNEL=0 TIME=82710.00ns ARID=0x01, ARLEN=0x0, ARSIZE=0x6 ARADDR=0x00802007c0 ARBURST=0x1 ARLOCK=0x0 ARCACHE=0x0 ARPORT=0x0
82710.00ns SMEM: Received slave 0 read addr 0x0080200740 len  0 size 6, temp_mem_addr 0x00200801d0
82730.00ns MSEQ: Read (command 78) matched (addr: 0xffff2c0e, received data: 0x00000001, expected data: 0x00000001.
AXI_MEM_XACTION: ReadReq: CHANNEL=0 TIME=82790.00ns ARID=0x01, ARLEN=0x0, ARSIZE=0x6 ARADDR=0x0080200800 ARBURST=0x1 ARLOCK=0x0 ARCACHE=0x0 ARPORT=0x0
82790.00ns SMEM: Received slave 0 read addr 0x0080200780 len  0 size 6, temp_mem_addr 0x00200801e0
AXI_MEM_XACTION: ReadReq: CHANNEL=0 TIME=82870.00ns ARID=0x01, ARLEN=0x0, ARSIZE=0x6 ARADDR=0x0080200840 ARBURST=0x1 ARLOCK=0x0 ARCACHE=0x0 ARPORT=0x0
82870.00ns SMEM: Received slave 0 read addr 0x00802007c0 len  0 size 6, temp_mem_addr 0x00200801f0
AXI_MEM_XACTION: ReadReq: CHANNEL=0 TIME=82950.00ns ARID=0x01, ARLEN=0x0, ARSIZE=0x6 ARADDR=0x0080200880 ARBURST=0x1 ARLOCK=0x0 ARCACHE=0x0 ARPORT=0x0
