verif/sim/pdp_max_pooling_int16/test.log
Command: /home/bcwang/nvdla/nvdla_bak/hw_20171120/verif/sim/pdp_max_pooling_int16/./simv -l test.log +continue_on_fail +dump_fsdb +fsdb+dump_log=off +fsdbfile+/home/bcwang/nvdla/nvdla_bak/hw_20171120/verif/sim/pdp_max_pooling_int16/debussy.fsdb +input_file=/home/bcwang/nvdla/nvdla_bak/hw_20171120/verif/sim/pdp_max_pooling_int16/input.txn +input_dir=/home/bcwang/nvdla/nvdla_bak/hw_20171120/verif/sim/pdp_max_pooling_int16
Chronologic VCS simulator copyright 1991-2017
Contains Synopsys proprietary information.
Compiler version M-2017.03-SP2_Full64; Runtime version M-2017.03-SP2_Full64;  Nov 24 12:41 2017
VCD+ Writer M-2017.03-SP2_Full64 Copyright (c) 1991-2017 by Synopsys Inc.
(1) NVDLA_IP_INFO : Turning on fsdb dump to file debussy.fsdb
*Verdi* Loading libsscore_vcs201703.so
*Verdi* : Disable novas_dump.log.
FSDB Dumper for VCS, Release Verdi_M-2017.03-SP2, Linux x86_64/64bit, 08/20/2017
(C) 1996 - 2017 by Synopsys, Inc.
*Verdi* FSDB: The switch FSDB file size might not match the input size (1000MB) because of performance concerns.
*Verdi* FSDB: To have the FSDB file size match the input size (1000MB), set the FSDB_ENV_PRECISE_AUTOSWITCH environment, though the dumping performance might decrease.
*Verdi* : Enable automatic switching of the FSDB file.
*Verdi* : (Filename='debussy', Limit Size=1000MB, File Amount=20).
*Verdi* : Create FSDB file 'debussy_000.fsdb'
*Verdi* : Create the file 'debussy.log' to log the time range of each FSDB file.
*Verdi* : Create virtual FSDB file 'debussy.vf' to log each FSDB file.
*Verdi* : Begin traversing the scope (top), layer (0).
*Verdi* WARNING: Var 'memory' will be ignored because its total element is larger than or equal to 2097152.
*Verdi* : End of traversing.
(2) NVDLA_IP_INFO : fsdb dumping enabled. debussy.fsdb
10570.00ns MSEQ: write_cmd address 0xffff3406 with data 0x00000006 (command 4294967292)
11370.00ns MSEQ: Write (command 4294967292) completed (addr: 0xffff3406, data: 0x00000006.
11450.00ns MSEQ: read_cmd address 0xffff3406 with data 0x00000006 and mask 0x00001fff (command 4294967293)
12250.00ns MSEQ: Read (command 4294967293) matched (addr: 0xffff3406, received data: 0x00000006, expected data: 0x00000006.
12330.00ns MSEQ: write_cmd address 0xffff340c with data 0x00701c07 (command 4294967294)
13130.00ns MSEQ: Write (command 4294967294) completed (addr: 0xffff340c, data: 0x00701c07.
13210.00ns MSEQ: read_cmd address 0xffff340c with data 0x00701c07 and mask 0x3fffffff (command 4294967295)
14010.00ns MSEQ: Read (command 4294967295) matched (addr: 0xffff340c, received data: 0x00701c07, expected data: 0x00701c07.
14090.00ns MSEQ: write_cmd address 0xffff341b with data 0x00000800 (command 0)
14890.00ns MSEQ: Write (command 0) completed (addr: 0xffff341b, data: 0x00000800.
14970.00ns MSEQ: read_cmd address 0xffff341b with data 0x00000800 and mask 0xffffffe0 (command 1)
15770.00ns MSEQ: Read (command 1) matched (addr: 0xffff341b, received data: 0x00000800, expected data: 0x00000800.
15850.00ns MSEQ: write_cmd address 0xffff300a with data 0x00000800 (command 2)
16650.00ns MSEQ: Write (command 2) completed (addr: 0xffff300a, data: 0x00000800.
16730.00ns MSEQ: read_cmd address 0xffff300a with data 0x00000800 and mask 0xffffffe0 (command 3)
17530.00ns MSEQ: Read (command 3) matched (addr: 0xffff300a, received data: 0x00000800, expected data: 0x00000800.
17610.00ns MSEQ: write_cmd address 0xffff341a with data 0x00000100 (command 4)
18410.00ns MSEQ: Write (command 4) completed (addr: 0xffff341a, data: 0x00000100.
18490.00ns MSEQ: read_cmd address 0xffff341a with data 0x00000100 and mask 0xffffffe0 (command 5)
19290.00ns MSEQ: Read (command 5) matched (addr: 0xffff341a, received data: 0x00000100, expected data: 0x00000100.
19370.00ns MSEQ: write_cmd address 0xffff3009 with data 0x00000100 (command 6)
20170.00ns MSEQ: Write (command 6) completed (addr: 0xffff3009, data: 0x00000100.
20250.00ns MSEQ: read_cmd address 0xffff3009 with data 0x00000100 and mask 0xffffffe0 (command 7)
21050.00ns MSEQ: Read (command 7) matched (addr: 0xffff3009, received data: 0x00000100, expected data: 0x00000100.
21130.00ns MSEQ: write_cmd address 0xffff3407 with data 0x00000006 (command 8)
21930.00ns MSEQ: Write (command 8) completed (addr: 0xffff3407, data: 0x00000006.
22010.00ns MSEQ: read_cmd address 0xffff3407 with data 0x00000006 and mask 0x00001fff (command 9)
22810.00ns MSEQ: Read (command 9) matched (addr: 0xffff3407, received data: 0x00000006, expected data: 0x00000006.
22890.00ns MSEQ: write_cmd address 0xffff300d with data 0x00000000 (command 10)
23690.00ns MSEQ: Write (command 10) completed (addr: 0xffff300d, data: 0x00000000.
23770.00ns MSEQ: read_cmd address 0xffff300d with data 0x00000000 and mask 0x000000ff (command 11)
24570.00ns MSEQ: Read (command 11) matched (addr: 0xffff300d, received data: 0x00000000, expected data: 0x00000000.
24650.00ns MSEQ: write_cmd address 0xffff340d with data 0x00000101 (command 12)
25450.00ns MSEQ: Write (command 12) completed (addr: 0xffff340d, data: 0x00000101.
25530.00ns MSEQ: read_cmd address 0xffff340d with data 0x00000101 and mask 0x00ff0f0f (command 13)
26330.00ns MSEQ: Read (command 13) matched (addr: 0xffff340d, received data: 0x00000101, expected data: 0x00000101.
26410.00ns MSEQ: write_cmd address 0xffff300e with data 0x00000001 (command 14)
27210.00ns MSEQ: Write (command 14) completed (addr: 0xffff300e, data: 0x00000001.
27290.00ns MSEQ: read_cmd address 0xffff300e with data 0x00000001 and mask 0x000000ff (command 15)
28090.00ns MSEQ: Read (command 15) matched (addr: 0xffff300e, received data: 0x00000001, expected data: 0x00000001.
28170.00ns MSEQ: write_cmd address 0xffff3408 with data 0x0000003f (command 16)
28970.00ns MSEQ: Write (command 16) completed (addr: 0xffff3408, data: 0x0000003f.
29050.00ns MSEQ: read_cmd address 0xffff3408 with data 0x0000003f and mask 0x00001fff (command 17)
29850.00ns MSEQ: Read (command 17) matched (addr: 0xffff3408, received data: 0x0000003f, expected data: 0x0000003f.
29930.00ns MSEQ: write_cmd address 0xffff341e with data 0x000000e0 (command 18)
30730.00ns MSEQ: Write (command 18) completed (addr: 0xffff341e, data: 0x000000e0.
30810.00ns MSEQ: read_cmd address 0xffff341e with data 0x000000e0 and mask 0xffffffe0 (command 19)
31610.00ns MSEQ: Read (command 19) matched (addr: 0xffff341e, received data: 0x000000e0, expected data: 0x000000e0.
31690.00ns MSEQ: write_cmd address 0xffff3421 with data 0x00000101 (command 20)
32490.00ns MSEQ: Write (command 20) completed (addr: 0xffff3421, data: 0x00000101.
32570.00ns MSEQ: read_cmd address 0xffff3421 with data 0x00000001 and mask 0x00000003 (command 21)
33370.00ns MSEQ: Read (command 21) matched (addr: 0xffff3421, received data: 0x00000001, expected data: 0x00000001.
33450.00ns MSEQ: write_cmd address 0xffff300c with data 0x00000101 (command 22)
34250.00ns MSEQ: Write (command 22) completed (addr: 0xffff300c, data: 0x00000101.
34330.00ns MSEQ: read_cmd address 0xffff300c with data 0x00000001 and mask 0x00000003 (command 23)
35130.00ns MSEQ: Read (command 23) matched (addr: 0xffff300c, received data: 0x00000001, expected data: 0x00000001.
35210.00ns MSEQ: write_cmd address 0xffff3410 with data 0x00000000 (command 24)
36010.00ns MSEQ: Write (command 24) completed (addr: 0xffff3410, data: 0x00000000.
36090.00ns MSEQ: read_cmd address 0xffff3410 with data 0x00000000 and mask 0x00007777 (command 25)
36890.00ns MSEQ: Read (command 25) matched (addr: 0xffff3410, received data: 0x00000000, expected data: 0x00000000.
36970.00ns MSEQ: write_cmd address 0xffff3404 with data 0x00000007 (command 26)
37770.00ns MSEQ: Write (command 26) completed (addr: 0xffff3404, data: 0x00000007.
37850.00ns MSEQ: read_cmd address 0xffff3404 with data 0x00000007 and mask 0x00001fff (command 27)
38650.00ns MSEQ: Read (command 27) matched (addr: 0xffff3404, received data: 0x00000007, expected data: 0x00000007.
38730.00ns MSEQ: write_cmd address 0xffff3004 with data 0x00000007 (command 28)
39530.00ns MSEQ: Write (command 28) completed (addr: 0xffff3004, data: 0x00000007.
39610.00ns MSEQ: read_cmd address 0xffff3004 with data 0x00000007 and mask 0x00001fff (command 29)
40410.00ns MSEQ: Read (command 29) matched (addr: 0xffff3004, received data: 0x00000007, expected data: 0x00000007.
40490.00ns MSEQ: write_cmd address 0xffff340b with data 0x00701c07 (command 30)
41290.00ns MSEQ: Write (command 30) completed (addr: 0xffff340b, data: 0x00701c07.
41370.00ns MSEQ: read_cmd address 0xffff340b with data 0x00701c07 and mask 0x3fffffff (command 31)
42170.00ns MSEQ: Read (command 31) matched (addr: 0xffff340b, received data: 0x00701c07, expected data: 0x00701c07.
42250.00ns MSEQ: write_cmd address 0xffff3010 with data 0x00701c07 (command 32)
43050.00ns MSEQ: Write (command 32) completed (addr: 0xffff3010, data: 0x00701c07.
43130.00ns MSEQ: read_cmd address 0xffff3010 with data 0x00701c07 and mask 0x3fffffff (command 33)
43930.00ns MSEQ: Read (command 33) matched (addr: 0xffff3010, received data: 0x00701c07, expected data: 0x00701c07.
44010.00ns MSEQ: write_cmd address 0xffff3403 with data 0x00000007 (command 34)
44810.00ns MSEQ: Write (command 34) completed (addr: 0xffff3403, data: 0x00000007.
44890.00ns MSEQ: read_cmd address 0xffff3403 with data 0x00000007 and mask 0x00001fff (command 35)
45690.00ns MSEQ: Read (command 35) matched (addr: 0xffff3403, received data: 0x00000007, expected data: 0x00000007.
45770.00ns MSEQ: write_cmd address 0xffff3003 with data 0x00000007 (command 36)
46570.00ns MSEQ: Write (command 36) completed (addr: 0xffff3003, data: 0x00000007.
46650.00ns MSEQ: read_cmd address 0xffff3003 with data 0x00000007 and mask 0x00001fff (command 37)
47450.00ns MSEQ: Read (command 37) matched (addr: 0xffff3003, received data: 0x00000007, expected data: 0x00000007.
47530.00ns MSEQ: write_cmd address 0xffff3409 with data 0x00000011 (command 38)
48330.00ns MSEQ: Write (command 38) completed (addr: 0xffff3409, data: 0x00000011.
48410.00ns MSEQ: read_cmd address 0xffff3409 with data 0x00000011 and mask 0x0000ff13 (command 39)
49210.00ns MSEQ: Read (command 39) matched (addr: 0xffff3409, received data: 0x00000011, expected data: 0x00000011.
49290.00ns MSEQ: write_cmd address 0xffff3006 with data 0x00000001 (command 40)
50090.00ns MSEQ: Write (command 40) completed (addr: 0xffff3006, data: 0x00000001.
50170.00ns MSEQ: read_cmd address 0xffff3006 with data 0x00000001 and mask 0x00000001 (command 41)
50970.00ns MSEQ: Read (command 41) matched (addr: 0xffff3006, received data: 0x00000001, expected data: 0x00000001.
51050.00ns MSEQ: write_cmd address 0xffff341f with data 0x00000620 (command 42)
51850.00ns MSEQ: Write (command 42) completed (addr: 0xffff341f, data: 0x00000620.
51930.00ns MSEQ: read_cmd address 0xffff341f with data 0x00000620 and mask 0xffffffe0 (command 43)
52730.00ns MSEQ: Read (command 43) matched (addr: 0xffff341f, received data: 0x00000620, expected data: 0x00000620.
52810.00ns MSEQ: write_cmd address 0xffff3420 with data 0x00000001 (command 44)
53610.00ns MSEQ: Write (command 44) completed (addr: 0xffff3420, data: 0x00000001.
53690.00ns MSEQ: read_cmd address 0xffff3420 with data 0x00000001 and mask 0x00000001 (command 45)
54490.00ns MSEQ: Read (command 45) matched (addr: 0xffff3420, received data: 0x00000001, expected data: 0x00000001.
54570.00ns MSEQ: write_cmd address 0xffff300b with data 0x00000001 (command 46)
55370.00ns MSEQ: Write (command 46) completed (addr: 0xffff300b, data: 0x00000001.
55450.00ns MSEQ: read_cmd address 0xffff300b with data 0x00000001 and mask 0x00000001 (command 47)
56250.00ns MSEQ: Read (command 47) matched (addr: 0xffff300b, received data: 0x00000001, expected data: 0x00000001.
56330.00ns MSEQ: write_cmd address 0xffff3405 with data 0x0000003f (command 48)
57130.00ns MSEQ: Write (command 48) completed (addr: 0xffff3405, data: 0x0000003f.
57210.00ns MSEQ: read_cmd address 0xffff3405 with data 0x0000003f and mask 0x00001fff (command 49)
58010.00ns MSEQ: Read (command 49) matched (addr: 0xffff3405, received data: 0x0000003f, expected data: 0x0000003f.
58090.00ns MSEQ: write_cmd address 0xffff3005 with data 0x0000003f (command 50)
58890.00ns MSEQ: Write (command 50) completed (addr: 0xffff3005, data: 0x0000003f.
58970.00ns MSEQ: read_cmd address 0xffff3005 with data 0x0000003f and mask 0x00001fff (command 51)
59770.00ns MSEQ: Read (command 51) matched (addr: 0xffff3005, received data: 0x0000003f, expected data: 0x0000003f.
59850.00ns MSEQ: Backdoor mem_load of file                           0.raw2 at address 0x80000000 for length 0x00002000.
59930.00ns MSEQ: write_cmd address 0xffff3007 with data 0x80000000 (command 53)
60730.00ns MSEQ: Write (command 53) completed (addr: 0xffff3007, data: 0x80000000.
60810.00ns MSEQ: read_cmd address 0xffff3007 with data 0x80000000 and mask 0xffffffe0 (command 54)
61610.00ns MSEQ: Read (command 54) matched (addr: 0xffff3007, received data: 0x80000000, expected data: 0x80000000.
61690.00ns MSEQ: write_cmd address 0xffff3008 with data 0x00000000 (command 55)
62490.00ns MSEQ: Write (command 55) completed (addr: 0xffff3008, data: 0x00000000.
62570.00ns MSEQ: read_cmd address 0xffff3008 with data 0x00000000 and mask 0xffffffff (command 56)
63370.00ns MSEQ: Read (command 56) matched (addr: 0xffff3008, received data: 0x00000000, expected data: 0x00000000.
63450.00ns MSEQ: write_cmd address 0xffff3418 with data 0x80000000 (command 57)
64250.00ns MSEQ: Write (command 57) completed (addr: 0xffff3418, data: 0x80000000.
64330.00ns MSEQ: read_cmd address 0xffff3418 with data 0x80000000 and mask 0xffffffe0 (command 58)
65130.00ns MSEQ: Read (command 58) matched (addr: 0xffff3418, received data: 0x80000000, expected data: 0x80000000.
65210.00ns MSEQ: write_cmd address 0xffff3419 with data 0x00000000 (command 59)
66010.00ns MSEQ: Write (command 59) completed (addr: 0xffff3419, data: 0x00000000.
66090.00ns MSEQ: read_cmd address 0xffff3419 with data 0x00000000 and mask 0xffffffff (command 60)
66890.00ns MSEQ: Read (command 60) matched (addr: 0xffff3419, received data: 0x00000000, expected data: 0x00000000.
66970.00ns MSEQ: write_cmd address 0xffff341c with data 0x80100000 (command 61)
67770.00ns MSEQ: Write (command 61) completed (addr: 0xffff341c, data: 0x80100000.
67850.00ns MSEQ: read_cmd address 0xffff341c with data 0x80100000 and mask 0xffffffe0 (command 62)
68650.00ns MSEQ: Read (command 62) matched (addr: 0xffff341c, received data: 0x80100000, expected data: 0x80100000.
68730.00ns MSEQ: write_cmd address 0xffff341d with data 0x00000000 (command 63)
69530.00ns MSEQ: Write (command 63) completed (addr: 0xffff341d, data: 0x00000000.
69610.00ns MSEQ: read_cmd address 0xffff341d with data 0x00000000 and mask 0xffffffff (command 64)
70410.00ns MSEQ: Read (command 64) matched (addr: 0xffff341d, received data: 0x00000000, expected data: 0x00000000.
70490.00ns MSEQ: write_cmd address 0xffff3002 with data 0x00000001 (command 65)
71290.00ns MSEQ: Write (command 65) completed (addr: 0xffff3002, data: 0x00000001.
71370.00ns MSEQ: read_cmd address 0xffff3002 with data 0x00000001 and mask 0x00000001 (command 66)
AXI_MEM_XACTION: ReadReq: CHANNEL=0 TIME=71430.00ns ARID=0x02, ARLEN=0x0, ARSIZE=0x6 ARADDR=0x0080000000 ARBURST=0x1 ARLOCK=0x0 ARCACHE=0x0 ARPORT=0x0
AXI_MEM_XACTION: ReadReq: CHANNEL=0 TIME=71510.00ns ARID=0x02, ARLEN=0x0, ARSIZE=0x6 ARADDR=0x0080000040 ARBURST=0x1 ARLOCK=0x0 ARCACHE=0x0 ARPORT=0x0
AXI_MEM_XACTION: ReadReq: CHANNEL=0 TIME=71590.00ns ARID=0x02, ARLEN=0x0, ARSIZE=0x6 ARADDR=0x0080000080 ARBURST=0x1 ARLOCK=0x0 ARCACHE=0x0 ARPORT=0x0
71590.00ns SMEM: Received slave 0 read addr 0x0080000000 len  0 size 6, temp_mem_addr 0x0020000000
AXI_MEM_XACTION: ReadReq: CHANNEL=0 TIME=71670.00ns ARID=0x02, ARLEN=0x0, ARSIZE=0x6 ARADDR=0x00800000c0 ARBURST=0x1 ARLOCK=0x0 ARCACHE=0x0 ARPORT=0x0
71670.00ns SMEM: Received slave 0 read addr 0x0080000040 len  0 size 6, temp_mem_addr 0x0020000010
AXI_MEM_XACTION: ReadReq: CHANNEL=0 TIME=71750.00ns ARID=0x02, ARLEN=0x0, ARSIZE=0x6 ARADDR=0x0080000100 ARBURST=0x1 ARLOCK=0x0 ARCACHE=0x0 ARPORT=0x0
71750.00ns SMEM: Received slave 0 read addr 0x0080000080 len  0 size 6, temp_mem_addr 0x0020000020
AXI_MEM_XACTION: ReadReq: CHANNEL=0 TIME=71830.00ns ARID=0x02, ARLEN=0x0, ARSIZE=0x6 ARADDR=0x0080000140 ARBURST=0x1 ARLOCK=0x0 ARCACHE=0x0 ARPORT=0x0
71830.00ns SMEM: Received slave 0 read addr 0x00800000c0 len  0 size 6, temp_mem_addr 0x0020000030
AXI_MEM_XACTION: ReadReq: CHANNEL=0 TIME=71910.00ns ARID=0x02, ARLEN=0x0, ARSIZE=0x6 ARADDR=0x0080000180 ARBURST=0x1 ARLOCK=0x0 ARCACHE=0x0 ARPORT=0x0
71910.00ns SMEM: Received slave 0 read addr 0x0080000100 len  0 size 6, temp_mem_addr 0x0020000040
AXI_MEM_XACTION: ReadReq: CHANNEL=0 TIME=71990.00ns ARID=0x02, ARLEN=0x0, ARSIZE=0x6 ARADDR=0x00800001c0 ARBURST=0x1 ARLOCK=0x0 ARCACHE=0x0 ARPORT=0x0
71990.00ns SMEM: Received slave 0 read addr 0x0080000140 len  0 size 6, temp_mem_addr 0x0020000050
AXI_MEM_XACTION: ReadReq: CHANNEL=0 TIME=72070.00ns ARID=0x02, ARLEN=0x0, ARSIZE=0x6 ARADDR=0x0080000200 ARBURST=0x1 ARLOCK=0x0 ARCACHE=0x0 ARPORT=0x0
72070.00ns SMEM: Received slave 0 read addr 0x0080000180 len  0 size 6, temp_mem_addr 0x0020000060
AXI_MEM_XACTION: ReadReq: CHANNEL=0 TIME=72150.00ns ARID=0x02, ARLEN=0x0, ARSIZE=0x6 ARADDR=0x0080000240 ARBURST=0x1 ARLOCK=0x0 ARCACHE=0x0 ARPORT=0x0
72150.00ns SMEM: Received slave 0 read addr 0x00800001c0 len  0 size 6, temp_mem_addr 0x0020000070
72170.00ns MSEQ: Read (command 66) matched (addr: 0xffff3002, received data: 0x00000001, expected data: 0x00000001.
AXI_MEM_XACTION: ReadReq: CHANNEL=0 TIME=72230.00ns ARID=0x02, ARLEN=0x0, ARSIZE=0x6 ARADDR=0x0080000280 ARBURST=0x1 ARLOCK=0x0 ARCACHE=0x0 ARPORT=0x0
72230.00ns SMEM: Received slave 0 read addr 0x0080000200 len  0 size 6, temp_mem_addr 0x0020000080
72250.00ns MSEQ: write_cmd address 0xffff3402 with data 0x00000001 (command 67)
AXI_MEM_XACTION: ReadReq: CHANNEL=0 TIME=72310.00ns ARID=0x02, ARLEN=0x0, ARSIZE=0x6 ARADDR=0x00800002c0 ARBURST=0x1 ARLOCK=0x0 ARCACHE=0x0 ARPORT=0x0
72310.00ns SMEM: Received slave 0 read addr 0x0080000240 len  0 size 6, temp_mem_addr 0x0020000090
AXI_MEM_XACTION: ReadReq: CHANNEL=0 TIME=72390.00ns ARID=0x02, ARLEN=0x0, ARSIZE=0x6 ARADDR=0x0080000300 ARBURST=0x1 ARLOCK=0x0 ARCACHE=0x0 ARPORT=0x0
72390.00ns SMEM: Received slave 0 read addr 0x0080000280 len  0 size 6, temp_mem_addr 0x00200000a0
AXI_MEM_XACTION: ReadReq: CHANNEL=0 TIME=72470.00ns ARID=0x02, ARLEN=0x0, ARSIZE=0x6 ARADDR=0x0080000340 ARBURST=0x1 ARLOCK=0x0 ARCACHE=0x0 ARPORT=0x0
72470.00ns SMEM: Received slave 0 read addr 0x00800002c0 len  0 size 6, temp_mem_addr 0x00200000b0
AXI_MEM_XACTION: ReadReq: CHANNEL=0 TIME=72550.00ns ARID=0x02, ARLEN=0x0, ARSIZE=0x6 ARADDR=0x0080000380 ARBURST=0x1 ARLOCK=0x0 ARCACHE=0x0 ARPORT=0x0
72550.00ns SMEM: Received slave 0 read addr 0x0080000300 len  0 size 6, temp_mem_addr 0x00200000c0
AXI_MEM_XACTION: ReadReq: CHANNEL=0 TIME=72630.00ns ARID=0x02, ARLEN=0x0, ARSIZE=0x6 ARADDR=0x00800003c0 ARBURST=0x1 ARLOCK=0x0 ARCACHE=0x0 ARPORT=0x0
72630.00ns SMEM: Received slave 0 read addr 0x0080000340 len  0 size 6, temp_mem_addr 0x00200000d0
AXI_MEM_XACTION: ReadReq: CHANNEL=0 TIME=72710.00ns ARID=0x02, ARLEN=0x0, ARSIZE=0x6 ARADDR=0x0080000400 ARBURST=0x1 ARLOCK=0x0 ARCACHE=0x0 ARPORT=0x0
72710.00ns SMEM: Received slave 0 read addr 0x0080000380 len  0 size 6, temp_mem_addr 0x00200000e0
AXI_MEM_XACTION: ReadReq: CHANNEL=0 TIME=72790.00ns ARID=0x02, ARLEN=0x0, ARSIZE=0x6 ARADDR=0x0080000440 ARBURST=0x1 ARLOCK=0x0 ARCACHE=0x0 ARPORT=0x0
72790.00ns SMEM: Received slave 0 read addr 0x00800003c0 len  0 size 6, temp_mem_addr 0x00200000f0
AXI_MEM_XACTION: ReadReq: CHANNEL=0 TIME=72870.00ns ARID=0x02, ARLEN=0x0, ARSIZE=0x6 ARADDR=0x0080000480 ARBURST=0x1 ARLOCK=0x0 ARCACHE=0x0 ARPORT=0x0
72870.00ns SMEM: Received slave 0 read addr 0x0080000400 len  0 size 6, temp_mem_addr 0x0020000100
AXI_MEM_XACTION: ReadReq: CHANNEL=0 TIME=72950.00ns ARID=0x02, ARLEN=0x0, ARSIZE=0x6 ARADDR=0x00800004c0 ARBURST=0x1 ARLOCK=0x0 ARCACHE=0x0 ARPORT=0x0
72950.00ns SMEM: Received slave 0 read addr 0x0080000440 len  0 size 6, temp_mem_addr 0x0020000110
AXI_MEM_XACTION: ReadReq: CHANNEL=0 TIME=73030.00ns ARID=0x02, ARLEN=0x0, ARSIZE=0x6 ARADDR=0x0080000500 ARBURST=0x1 ARLOCK=0x0 ARCACHE=0x0 ARPORT=0x0
73030.00ns SMEM: Received slave 0 read addr 0x0080000480 len  0 size 6, temp_mem_addr 0x0020000120
73050.00ns MSEQ: Write (command 67) completed (addr: 0xffff3402, data: 0x00000001.
AXI_MEM_XACTION: ReadReq: CHANNEL=0 TIME=73110.00ns ARID=0x02, ARLEN=0x0, ARSIZE=0x6 ARADDR=0x0080000540 ARBURST=0x1 ARLOCK=0x0 ARCACHE=0x0 ARPORT=0x0
73110.00ns SMEM: Received slave 0 read addr 0x00800004c0 len  0 size 6, temp_mem_addr 0x0020000130
73130.00ns MSEQ: read_cmd address 0xffff3402 with data 0x00000001 and mask 0x00000001 (command 68)
AXI_MEM_XACTION: ReadReq: CHANNEL=0 TIME=73190.00ns ARID=0x02, ARLEN=0x0, ARSIZE=0x6 ARADDR=0x0080000580 ARBURST=0x1 ARLOCK=0x0 ARCACHE=0x0 ARPORT=0x0
73190.00ns SMEM: Received slave 0 read addr 0x0080000500 len  0 size 6, temp_mem_addr 0x0020000140
AXI_MEM_XACTION: ReadReq: CHANNEL=0 TIME=73270.00ns ARID=0x02, ARLEN=0x0, ARSIZE=0x6 ARADDR=0x00800005c0 ARBURST=0x1 ARLOCK=0x0 ARCACHE=0x0 ARPORT=0x0
73270.00ns SMEM: Received slave 0 read addr 0x0080000540 len  0 size 6, temp_mem_addr 0x0020000150
AXI_MEM_XACTION: ReadReq: CHANNEL=0 TIME=73350.00ns ARID=0x02, ARLEN=0x0, ARSIZE=0x6 ARADDR=0x0080000600 ARBURST=0x1 ARLOCK=0x0 ARCACHE=0x0 ARPORT=0x0
73350.00ns SMEM: Received slave 0 read addr 0x0080000580 len  0 size 6, temp_mem_addr 0x0020000160
AXI_MEM_XACTION: ReadReq: CHANNEL=0 TIME=73430.00ns ARID=0x02, ARLEN=0x0, ARSIZE=0x6 ARADDR=0x0080000640 ARBURST=0x1 ARLOCK=0x0 ARCACHE=0x0 ARPORT=0x0
73430.00ns SMEM: Received slave 0 read addr 0x00800005c0 len  0 size 6, temp_mem_addr 0x0020000170
AXI_MEM_XACTION: ReadReq: CHANNEL=0 TIME=73510.00ns ARID=0x02, ARLEN=0x0, ARSIZE=0x6 ARADDR=0x0080000680 ARBURST=0x1 ARLOCK=0x0 ARCACHE=0x0 ARPORT=0x0
73510.00ns SMEM: Received slave 0 read addr 0x0080000600 len  0 size 6, temp_mem_addr 0x0020000180
AXI_MEM_XACTION: ReadReq: CHANNEL=0 TIME=73590.00ns ARID=0x02, ARLEN=0x0, ARSIZE=0x6 ARADDR=0x00800006c0 ARBURST=0x1 ARLOCK=0x0 ARCACHE=0x0 ARPORT=0x0
73590.00ns SMEM: Received slave 0 read addr 0x0080000640 len  0 size 6, temp_mem_addr 0x0020000190
AXI_MEM_XACTION: ReadReq: CHANNEL=0 TIME=73670.00ns ARID=0x02, ARLEN=0x0, ARSIZE=0x6 ARADDR=0x0080000700 ARBURST=0x1 ARLOCK=0x0 ARCACHE=0x0 ARPORT=0x0
73670.00ns SMEM: Received slave 0 read addr 0x0080000680 len  0 size 6, temp_mem_addr 0x00200001a0
AXI_MEM_XACTION: ReadReq: CHANNEL=0 TIME=73750.00ns ARID=0x02, ARLEN=0x0, ARSIZE=0x6 ARADDR=0x0080000740 ARBURST=0x1 ARLOCK=0x0 ARCACHE=0x0 ARPORT=0x0
73750.00ns SMEM: Received slave 0 read addr 0x00800006c0 len  0 size 6, temp_mem_addr 0x00200001b0
AXI_MEM_XACTION: ReadReq: CHANNEL=0 TIME=73830.00ns ARID=0x02, ARLEN=0x0, ARSIZE=0x6 ARADDR=0x0080000780 ARBURST=0x1 ARLOCK=0x0 ARCACHE=0x0 ARPORT=0x0
73830.00ns SMEM: Received slave 0 read addr 0x0080000700 len  0 size 6, temp_mem_addr 0x00200001c0
AXI_MEM_XACTION: ReadReq: CHANNEL=0 TIME=73910.00ns ARID=0x02, ARLEN=0x0, ARSIZE=0x6 ARADDR=0x00800007c0 ARBURST=0x1 ARLOCK=0x0 ARCACHE=0x0 ARPORT=0x0
73910.00ns SMEM: Received slave 0 read addr 0x0080000740 len  0 size 6, temp_mem_addr 0x00200001d0
73930.00ns MSEQ: Read (command 68) matched (addr: 0xffff3402, received data: 0x00000001, expected data: 0x00000001.
AXI_MEM_XACTION: ReadReq: CHANNEL=0 TIME=73990.00ns ARID=0x02, ARLEN=0x0, ARSIZE=0x6 ARADDR=0x0080000800 ARBURST=0x1 ARLOCK=0x0 ARCACHE=0x0 ARPORT=0x0
73990.00ns SMEM: Received slave 0 read addr 0x0080000780 len  0 size 6, temp_mem_addr 0x00200001e0
AXI_MEM_XACTION: ReadReq: CHANNEL=0 TIME=74070.00ns ARID=0x02, ARLEN=0x0, ARSIZE=0x6 ARADDR=0x0080000840 ARBURST=0x1 ARLOCK=0x0 ARCACHE=0x0 ARPORT=0x0
74070.00ns SMEM: Received slave 0 read addr 0x00800007c0 len  0 size 6, temp_mem_addr 0x00200001f0
AXI_MEM_XACTION: ReadReq: CHANNEL=0 TIME=74150.00ns ARID=0x02, ARLEN=0x0, ARSIZE=0x6 ARADDR=0x0080000880 ARBURST=0x1 ARLOCK=0x0 ARCACHE=0x0 ARPORT=0x0
74150.00ns SMEM: Received slave 0 read addr 0x0080000800 len  0 size 6, temp_mem_addr 0x0020000200
AXI_MEM_XACTION: ReadReq: CHANNEL=0 TIME=74230.00ns ARID=0x02, ARLEN=0x0, ARSIZE=0x6 ARADDR=0x00800008c0 ARBURST=0x1 ARLOCK=0x0 ARCACHE=0x0 ARPORT=0x0
74230.00ns SMEM: Received slave 0 read addr 0x0080000840 len  0 size 6, temp_mem_addr 0x0020000210
AXI_MEM_XACTION: ReadReq: CHANNEL=0 TIME=74310.00ns ARID=0x02, ARLEN=0x0, ARSIZE=0x6 ARADDR=0x0080000900 ARBURST=0x1 ARLOCK=0x0 ARCACHE=0x0 ARPORT=0x0
74310.00ns SMEM: Received slave 0 read addr 0x0080000880 len  0 size 6, temp_mem_addr 0x0020000220
AXI_MEM_XACTION: ReadReq: CHANNEL=0 TIME=74390.00ns ARID=0x02, ARLEN=0x0, ARSIZE=0x6 ARADDR=0x0080000940 ARBURST=0x1 ARLOCK=0x0 ARCACHE=0x0 ARPORT=0x0
74390.00ns SMEM: Received slave 0 read addr 0x00800008c0 len  0 size 6, temp_mem_addr 0x0020000230
AXI_MEM_XACTION: ReadReq: CHANNEL=0 TIME=74470.00ns ARID=0x02, ARLEN=0x0, ARSIZE=0x6 ARADDR=0x0080000980 ARBURST=0x1 ARLOCK=0x0 ARCACHE=0x0 ARPORT=0x0
74470.00ns SMEM: Received slave 0 read addr 0x0080000900 len  0 size 6, temp_mem_addr 0x0020000240
AXI_MEM_XACTION: ReadReq: CHANNEL=0 TIME=74550.00ns ARID=0x02, ARLEN=0x0, ARSIZE=0x6 ARADDR=0x00800009c0 ARBURST=0x1 ARLOCK=0x0 ARCACHE=0x0 ARPORT=0x0
74550.00ns SMEM: Received slave 0 read addr 0x0080000940 len  0 size 6, temp_mem_addr 0x0020000250
AXI_MEM_XACTION: ReadReq: CHANNEL=0 TIME=74630.00ns ARID=0x02, ARLEN=0x0, ARSIZE=0x6 ARADDR=0x0080000a00 ARBURST=0x1 ARLOCK=0x0 ARCACHE=0x0 ARPORT=0x0
74630.00ns SMEM: Received slave 0 read addr 0x0080000980 len  0 size 6, temp_mem_addr 0x0020000260
